<?xml version="1.0" encoding="UTF-8" standalone="no"?>
<!-- Created with Inkscape (http://www.inkscape.org/) -->

<svg
   xmlns:dc="http://purl.org/dc/elements/1.1/"
   xmlns:cc="http://creativecommons.org/ns#"
   xmlns:rdf="http://www.w3.org/1999/02/22-rdf-syntax-ns#"
   xmlns:svg="http://www.w3.org/2000/svg"
   xmlns="http://www.w3.org/2000/svg"
   xmlns:sodipodi="http://sodipodi.sourceforge.net/DTD/sodipodi-0.dtd"
   xmlns:inkscape="http://www.inkscape.org/namespaces/inkscape"
   width="972.09967mm"
   height="415.65576mm"
   viewBox="0 0 972.09967 415.65576"
   version="1.1"
   id="svg8"
   inkscape:version="0.92.4 (5da689c313, 2019-01-14)"
   sodipodi:docname="CNC frame.svg">
  <defs
     id="defs2">
    <marker
       style="overflow:visible"
       refY="0"
       refX="0"
       orient="auto"
       id="DistanceX">
      <path
         id="path12"
         style="stroke:#000000;stroke-width:0.5"
         d="M 3,-3 -3,3 M 0,-5 V 5"
         inkscape:connector-curvature="0" />
    </marker>
    <pattern
       y="0"
       x="0"
       width="8"
       patternUnits="userSpaceOnUse"
       id="Hatch"
       height="8">
      <path
         id="path15"
         stroke-width="0.25"
         stroke="#000000"
         linecap="square"
         d="M8 4 l-4,4" />
      <path
         id="path17"
         stroke-width="0.25"
         stroke="#000000"
         linecap="square"
         d="M6 2 l-4,4" />
      <path
         id="path19"
         stroke-width="0.25"
         stroke="#000000"
         linecap="square"
         d="M4 0 l-4,4" />
    </pattern>
    <symbol
       id="$MODEL_SPACE" />
    <symbol
       id="$PAPER_SPACE" />
  </defs>
  <sodipodi:namedview
     id="base"
     pagecolor="#ffffff"
     bordercolor="#666666"
     borderopacity="1.0"
     inkscape:pageopacity="0.0"
     inkscape:pageshadow="2"
     inkscape:zoom="0.35"
     inkscape:cx="1217.0388"
     inkscape:cy="831.20554"
     inkscape:document-units="mm"
     inkscape:current-layer="layer1"
     showgrid="false"
     inkscape:window-width="1920"
     inkscape:window-height="1001"
     inkscape:window-x="-9"
     inkscape:window-y="-9"
     inkscape:window-maximized="1"
     fit-margin-top="5"
     fit-margin-left="5"
     fit-margin-right="5"
     fit-margin-bottom="5" />
  <metadata
     id="metadata5">
    <rdf:RDF>
      <cc:Work
         rdf:about="">
        <dc:format>image/svg+xml</dc:format>
        <dc:type
           rdf:resource="http://purl.org/dc/dcmitype/StillImage" />
        <dc:title></dc:title>
      </cc:Work>
    </rdf:RDF>
  </metadata>
  <g
     inkscape:label="Capa 1"
     inkscape:groupmode="layer"
     id="layer1"
     transform="translate(216.17484,-104.29116)">
    <g
       id="g1267"
       transform="matrix(0.26458333,0,0,0.26458333,-849.16989,-412.37536)">
      <g
         id="g26"
         inkscape:label="0" />
      <g
         id="g782"
         inkscape:label="CORTE">
        <path
           id="path28"
           style="fill:none;stroke:#0000ff"
           d="m 4893.8791,3064.558 v -19.6536"
           inkscape:connector-curvature="0" />
        <path
           id="path30"
           style="fill:none;stroke:#0000ff"
           d="m 4893.8791,3021.4713 a 11.71655,11.71655 0 0 0 0,23.4331"
           inkscape:connector-curvature="0" />
        <path
           id="path32"
           style="fill:none;stroke:#0000ff"
           d="m 4893.8791,3021.4713 h 34.0157"
           inkscape:connector-curvature="0" />
        <path
           id="path34"
           style="fill:none;stroke:#0000ff"
           d="m 4927.8948,3044.9044 a 11.71655,11.71655 0 0 0 0,-23.4331"
           inkscape:connector-curvature="0" />
        <path
           id="path36"
           style="fill:none;stroke:#0000ff"
           d="m 4927.8948,3044.9044 v 19.6536"
           inkscape:connector-curvature="0" />
        <path
           id="path38"
           style="fill:none;stroke:#0000ff"
           d="m 4927.8948,3087.991 a 11.716536,11.716536 0 0 0 0,-23.433"
           inkscape:connector-curvature="0" />
        <path
           id="path40"
           style="fill:none;stroke:#0000ff"
           d="m 4927.8948,3087.991 h -34.0157"
           inkscape:connector-curvature="0" />
        <path
           id="path42"
           style="fill:none;stroke:#0000ff"
           d="m 4893.8791,3064.558 a 11.716535,11.716535 0 0 0 0,23.433"
           inkscape:connector-curvature="0" />
        <path
           id="path44"
           style="fill:none;stroke:#0000ff"
           d="m 4927.8948,2704.125 v 19.6536"
           inkscape:connector-curvature="0" />
        <path
           id="path46"
           style="fill:none;stroke:#0000ff"
           d="m 4927.8948,2747.2117 a 11.71655,11.71655 0 0 0 0,-23.4331"
           inkscape:connector-curvature="0" />
        <path
           id="path48"
           style="fill:none;stroke:#0000ff"
           d="m 4927.8948,2747.2117 h -34.0157"
           inkscape:connector-curvature="0" />
        <path
           id="path50"
           style="fill:none;stroke:#0000ff"
           d="m 4893.8791,2723.7786 a 11.71655,11.71655 0 0 0 0,23.4331"
           inkscape:connector-curvature="0" />
        <path
           id="path52"
           style="fill:none;stroke:#0000ff"
           d="M 4893.8791,2723.7786 V 2704.125"
           inkscape:connector-curvature="0" />
        <path
           id="path54"
           style="fill:none;stroke:#0000ff"
           d="m 4893.8791,2680.692 a 11.716536,11.716536 0 0 0 0,23.433"
           inkscape:connector-curvature="0" />
        <path
           id="path56"
           style="fill:none;stroke:#0000ff"
           d="m 4893.8791,2680.692 h 34.0157"
           inkscape:connector-curvature="0" />
        <path
           id="path58"
           style="fill:none;stroke:#0000ff"
           d="m 4927.8948,2704.125 a 11.716536,11.716536 0 0 0 0,-23.433"
           inkscape:connector-curvature="0" />
        <path
           id="path60"
           style="fill:none;stroke:#0000ff"
           d="m 6044.7452,2940.7235 h -34.0157"
           inkscape:connector-curvature="0" />
        <path
           id="path62"
           style="fill:none;stroke:#0000ff"
           d="m 6010.7295,2940.7235 a 11.716536,11.716536 0 0 0 0,23.433"
           inkscape:connector-curvature="0" />
        <path
           id="path64"
           style="fill:none;stroke:#0000ff"
           d="m 6010.7295,2964.1565 v 10.4487"
           inkscape:connector-curvature="0" />
        <path
           id="path66"
           style="fill:none;stroke:#0000ff"
           d="m 6010.7295,2974.6052 a 11.71655,11.71655 0 0 0 0,23.4331"
           inkscape:connector-curvature="0" />
        <path
           id="path68"
           style="fill:none;stroke:#0000ff"
           d="m 6010.7295,2998.0383 h 34.0157"
           inkscape:connector-curvature="0" />
        <path
           id="path70"
           style="fill:none;stroke:#0000ff"
           d="m 6044.7452,2998.0383 v 113.3858"
           inkscape:connector-curvature="0" />
        <path
           id="path72"
           style="fill:none;stroke:#0000ff"
           d="m 6044.7452,3111.4241 h -34.0157"
           inkscape:connector-curvature="0" />
        <path
           id="path74"
           style="fill:none;stroke:#0000ff"
           d="m 6010.7295,3111.4241 a 11.71655,11.71655 0 0 0 0,23.4331"
           inkscape:connector-curvature="0" />
        <path
           id="path76"
           style="fill:none;stroke:#0000ff"
           d="m 6010.7295,3134.8572 v 33.2598"
           inkscape:connector-curvature="0" />
        <path
           id="path78"
           style="fill:none;stroke:#0000ff"
           d="M 6010.7295,3168.117 H 3811.0444"
           inkscape:connector-curvature="0" />
        <path
           id="path80"
           style="fill:none;stroke:#0000ff"
           d="m 3811.0444,3168.117 v -33.2598"
           inkscape:connector-curvature="0" />
        <path
           id="path82"
           style="fill:none;stroke:#0000ff"
           d="m 3811.0444,3134.8572 a 11.71655,11.71655 0 0 0 0,-23.4331"
           inkscape:connector-curvature="0" />
        <path
           id="path84"
           style="fill:none;stroke:#0000ff"
           d="m 3811.0444,3111.4241 h -34.0157"
           inkscape:connector-curvature="0" />
        <path
           id="path86"
           style="fill:none;stroke:#0000ff"
           d="M 3777.0287,3111.4241 V 2998.0383"
           inkscape:connector-curvature="0" />
        <path
           id="path88"
           style="fill:none;stroke:#0000ff"
           d="m 3777.0287,2998.0383 h 34.0157"
           inkscape:connector-curvature="0" />
        <path
           id="path90"
           style="fill:none;stroke:#0000ff"
           d="m 3811.0444,2998.0383 a 11.71655,11.71655 0 0 0 0,-23.4331"
           inkscape:connector-curvature="0" />
        <path
           id="path92"
           style="fill:none;stroke:#0000ff"
           d="m 3811.0444,2974.6052 v -10.4487"
           inkscape:connector-curvature="0" />
        <path
           id="path94"
           style="fill:none;stroke:#0000ff"
           d="m 3811.0444,2964.1565 a 11.716535,11.716535 0 1 0 -0.4282,-23.4252"
           inkscape:connector-curvature="0" />
        <path
           id="path96"
           style="fill:none;stroke:#0000ff"
           d="m 3810.6162,2940.7313 0.4282,-0.01"
           inkscape:connector-curvature="0" />
        <path
           id="path98"
           style="fill:none;stroke:#0000ff"
           d="m 3811.0444,2940.7235 h -34.0157"
           inkscape:connector-curvature="0" />
        <path
           id="path100"
           style="fill:none;stroke:#0000ff"
           d="M 3777.0287,2940.7235 V 2827.3376"
           inkscape:connector-curvature="0" />
        <path
           id="path102"
           style="fill:none;stroke:#0000ff"
           d="m 3777.0287,2827.3376 h 34.0157"
           inkscape:connector-curvature="0" />
        <path
           id="path104"
           style="fill:none;stroke:#0000ff"
           d="m 3811.0444,2827.3376 a 11.716535,11.716535 0 0 0 0,-23.433"
           inkscape:connector-curvature="0" />
        <path
           id="path106"
           style="fill:none;stroke:#0000ff"
           d="m 3811.0444,2803.9046 v -9.8268"
           inkscape:connector-curvature="0" />
        <path
           id="path108"
           style="fill:none;stroke:#0000ff"
           d="m 3811.0444,2794.0778 a 11.71655,11.71655 0 0 0 0,-23.4331"
           inkscape:connector-curvature="0" />
        <path
           id="path110"
           style="fill:none;stroke:#0000ff"
           d="m 3811.0444,2770.6447 h -34.0157"
           inkscape:connector-curvature="0" />
        <path
           id="path112"
           style="fill:none;stroke:#0000ff"
           d="M 3777.0287,2770.6447 V 2657.2589"
           inkscape:connector-curvature="0" />
        <path
           id="path114"
           style="fill:none;stroke:#0000ff"
           d="m 3777.0287,2657.2589 h 34.0157"
           inkscape:connector-curvature="0" />
        <path
           id="path116"
           style="fill:none;stroke:#0000ff"
           d="m 3811.0444,2657.2589 a 11.71655,11.71655 0 0 0 0,-23.4331"
           inkscape:connector-curvature="0" />
        <path
           id="path118"
           style="fill:none;stroke:#0000ff"
           d="M 3811.0444,2633.8258 V 2600.566"
           inkscape:connector-curvature="0" />
        <path
           id="path120"
           style="fill:none;stroke:#0000ff"
           d="M 3811.0444,2600.566 H 6010.7295"
           inkscape:connector-curvature="0" />
        <path
           id="path122"
           style="fill:none;stroke:#0000ff"
           d="m 6010.7295,2600.566 v 33.2598"
           inkscape:connector-curvature="0" />
        <path
           id="path124"
           style="fill:none;stroke:#0000ff"
           d="m 6010.7295,2633.8258 a 11.71655,11.71655 0 0 0 0,23.4331"
           inkscape:connector-curvature="0" />
        <path
           id="path126"
           style="fill:none;stroke:#0000ff"
           d="m 6010.7295,2657.2589 h 34.0157"
           inkscape:connector-curvature="0" />
        <path
           id="path128"
           style="fill:none;stroke:#0000ff"
           d="m 6044.7452,2657.2589 v 113.3858"
           inkscape:connector-curvature="0" />
        <path
           id="path130"
           style="fill:none;stroke:#0000ff"
           d="m 6044.7452,2770.6447 h -34.0157"
           inkscape:connector-curvature="0" />
        <path
           id="path132"
           style="fill:none;stroke:#0000ff"
           d="m 6010.7295,2770.6447 a 11.71655,11.71655 0 0 0 0,23.4331"
           inkscape:connector-curvature="0" />
        <path
           id="path134"
           style="fill:none;stroke:#0000ff"
           d="m 6010.7295,2794.0778 v 9.8268"
           inkscape:connector-curvature="0" />
        <path
           id="path136"
           style="fill:none;stroke:#0000ff"
           d="m 6010.7295,2803.9046 a 11.716535,11.716535 0 0 0 0,23.433"
           inkscape:connector-curvature="0" />
        <path
           id="path138"
           style="fill:none;stroke:#0000ff"
           d="m 6010.7295,2827.3376 h 34.0157"
           inkscape:connector-curvature="0" />
        <path
           id="path140"
           style="fill:none;stroke:#0000ff"
           d="m 6044.7452,2827.3376 v 114.0078"
           inkscape:connector-curvature="0" />
        <path
           id="path142"
           style="fill:none;stroke:#0000ff"
           d="M 6044.7452,2941.3454 V 2827.9595"
           inkscape:connector-curvature="0" />
        <path
           id="path144"
           style="fill:none;stroke:#0000ff"
           d="m 4893.8791,3420.2735 h 34.0157"
           inkscape:connector-curvature="0" />
        <path
           id="path146"
           style="fill:none;stroke:#0000ff"
           d="m 4893.8791,3377.1869 v 19.6536"
           inkscape:connector-curvature="0" />
        <path
           id="path148"
           style="fill:none;stroke:#0000ff"
           d="m 4893.8791,3396.8405 a 11.716536,11.716536 0 0 0 0,23.433"
           inkscape:connector-curvature="0" />
        <path
           id="path150"
           style="fill:none;stroke:#0000ff"
           d="m 4927.8948,3420.2735 a 11.716535,11.716535 0 0 0 0,-23.433"
           inkscape:connector-curvature="0" />
        <path
           id="path152"
           style="fill:none;stroke:#0000ff"
           d="m 4927.8948,3396.8405 v -19.6536"
           inkscape:connector-curvature="0" />
        <path
           id="path154"
           style="fill:none;stroke:#0000ff"
           d="m 4927.8948,3353.7539 h -34.0157"
           inkscape:connector-curvature="0" />
        <path
           id="path156"
           style="fill:none;stroke:#0000ff"
           d="m 4927.8948,3377.1869 a 11.716536,11.716536 0 0 0 0,-23.433"
           inkscape:connector-curvature="0" />
        <path
           id="path158"
           style="fill:none;stroke:#0000ff"
           d="m 4893.8791,3353.7539 a 11.716535,11.716535 0 0 0 0,23.433"
           inkscape:connector-curvature="0" />
        <path
           id="path160"
           style="fill:none;stroke:#0000ff"
           d="m 6044.7452,3330.3208 v 113.3858"
           inkscape:connector-curvature="0" />
        <path
           id="path162"
           style="fill:none;stroke:#0000ff"
           d="m 6044.7452,3443.7066 h -34.0157"
           inkscape:connector-curvature="0" />
        <path
           id="path164"
           style="fill:none;stroke:#0000ff"
           d="m 6010.7295,3443.7066 a 11.71655,11.71655 0 0 0 0,23.4331"
           inkscape:connector-curvature="0" />
        <path
           id="path166"
           style="fill:none;stroke:#0000ff"
           d="m 6010.7295,3467.1397 v 33.2598"
           inkscape:connector-curvature="0" />
        <path
           id="path168"
           style="fill:none;stroke:#0000ff"
           d="M 6010.7295,3500.3995 H 3811.0444"
           inkscape:connector-curvature="0" />
        <path
           id="path170"
           style="fill:none;stroke:#0000ff"
           d="m 3811.0444,3500.3995 v -33.2598"
           inkscape:connector-curvature="0" />
        <path
           id="path172"
           style="fill:none;stroke:#0000ff"
           d="m 3811.0444,3467.1397 a 11.71655,11.71655 0 0 0 0,-23.4331"
           inkscape:connector-curvature="0" />
        <path
           id="path174"
           style="fill:none;stroke:#0000ff"
           d="m 3811.0444,3443.7066 h -34.0157"
           inkscape:connector-curvature="0" />
        <path
           id="path176"
           style="fill:none;stroke:#0000ff"
           d="M 3777.0287,3443.7066 V 3330.3208"
           inkscape:connector-curvature="0" />
        <path
           id="path178"
           style="fill:none;stroke:#0000ff"
           d="m 3777.0287,3330.3208 h 34.0157"
           inkscape:connector-curvature="0" />
        <path
           id="path180"
           style="fill:none;stroke:#0000ff"
           d="m 3811.0444,3330.3208 a 11.71655,11.71655 0 0 0 0,-23.4331"
           inkscape:connector-curvature="0" />
        <path
           id="path182"
           style="fill:none;stroke:#0000ff"
           d="m 3811.0444,3306.8877 v -33.2598"
           inkscape:connector-curvature="0" />
        <path
           id="path184"
           style="fill:none;stroke:#0000ff"
           d="M 3811.0444,3273.6279 H 6010.7295"
           inkscape:connector-curvature="0" />
        <path
           id="path186"
           style="fill:none;stroke:#0000ff"
           d="m 6010.7295,3273.6279 v 18.8976"
           inkscape:connector-curvature="0" />
        <path
           id="path188"
           style="fill:none;stroke:#0000ff"
           d="m 6010.7295,3292.5255 v 14.3622"
           inkscape:connector-curvature="0" />
        <path
           id="path190"
           style="fill:none;stroke:#0000ff"
           d="m 6010.7295,3306.8877 a 11.71655,11.71655 0 0 0 0,23.4331"
           inkscape:connector-curvature="0" />
        <path
           id="path192"
           style="fill:none;stroke:#0000ff"
           d="m 6010.7295,3330.3208 h 34.0157"
           inkscape:connector-curvature="0" />
        <path
           id="path194"
           style="fill:none;stroke:#0000ff"
           d="m 3251.8308,3198.1985 h -37.7953"
           inkscape:connector-curvature="0" />
        <path
           id="path196"
           style="fill:none;stroke:#0000ff"
           d="m 3214.0355,3198.1985 h 37.7953"
           inkscape:connector-curvature="0" />
        <path
           id="path198"
           style="fill:none;stroke:#0000ff"
           d="m 3251.8308,3198.1985 40.0588,-7.5591"
           inkscape:connector-curvature="0" />
        <path
           id="path200"
           style="fill:none;stroke:#0000ff"
           d="M 3291.8896,3190.6394 H 3409.373"
           inkscape:connector-curvature="0" />
        <path
           id="path202"
           style="fill:none;stroke:#0000ff"
           d="m 3409.373,3190.6394 h 16.7081"
           inkscape:connector-curvature="0" />
        <path
           id="path204"
           style="fill:none;stroke:#0000ff"
           d="m 3426.0811,3190.6394 6.9031,0.1121"
           inkscape:connector-curvature="0" />
        <path
           id="path206"
           style="fill:none;stroke:#0000ff"
           d="m 3432.9842,3190.7515 5.6658,0.2875"
           inkscape:connector-curvature="0" />
        <path
           id="path208"
           style="fill:none;stroke:#0000ff"
           d="m 3438.65,3191.039 4.709,0.3899"
           inkscape:connector-curvature="0" />
        <path
           id="path210"
           style="fill:none;stroke:#0000ff"
           d="m 3443.359,3191.4289 16.694,1.8632"
           inkscape:connector-curvature="0" />
        <path
           id="path212"
           style="fill:none;stroke:#0000ff"
           d="m 3460.053,3193.2921 21.9851,3.3249"
           inkscape:connector-curvature="0" />
        <path
           id="path214"
           style="fill:none;stroke:#0000ff"
           d="m 3482.0381,3196.617 20.0508,3.3755"
           inkscape:connector-curvature="0" />
        <path
           id="path216"
           style="fill:none;stroke:#0000ff"
           d="m 3502.0889,3199.9925 11.1885,1.9217"
           inkscape:connector-curvature="0" />
        <path
           id="path218"
           style="fill:none;stroke:#0000ff"
           d="m 3513.2774,3201.9142 2.2615,0.47"
           inkscape:connector-curvature="0" />
        <path
           id="path220"
           style="fill:none;stroke:#0000ff"
           d="m 3515.5389,3202.3842 6.2594,1.4137"
           inkscape:connector-curvature="0" />
        <path
           id="path222"
           style="fill:none;stroke:#0000ff"
           d="m 3521.7983,3203.7979 29.9498,5.6638"
           inkscape:connector-curvature="0" />
        <path
           id="path224"
           style="fill:none;stroke:#0000ff"
           d="m 3551.7481,3209.4617 3.404,0.7275"
           inkscape:connector-curvature="0" />
        <path
           id="path226"
           style="fill:none;stroke:#0000ff"
           d="m 3555.1521,3210.1892 24.7354,5.9584"
           inkscape:connector-curvature="0" />
        <path
           id="path228"
           style="fill:none;stroke:#0000ff"
           d="m 3579.8875,3216.1476 4.9204,1.2914"
           inkscape:connector-curvature="0" />
        <path
           id="path230"
           style="fill:none;stroke:#0000ff"
           d="m 3584.8079,3217.439 5.5558,1.6438"
           inkscape:connector-curvature="0" />
        <path
           id="path232"
           style="fill:none;stroke:#0000ff"
           d="m 3590.3637,3219.0828 1.663,0.4548"
           inkscape:connector-curvature="0" />
        <path
           id="path234"
           style="fill:none;stroke:#0000ff"
           d="m 3592.0267,3219.5376 1.7266,0.4131"
           inkscape:connector-curvature="0" />
        <path
           id="path236"
           style="fill:none;stroke:#0000ff"
           d="m 3593.7533,3219.9507 5.7397,1.2913"
           inkscape:connector-curvature="0" />
        <path
           id="path238"
           style="fill:none;stroke:#0000ff"
           d="m 3599.493,3221.242 2.1152,0.5489"
           inkscape:connector-curvature="0" />
        <path
           id="path240"
           style="fill:none;stroke:#0000ff"
           d="m 3601.6082,3221.7909 12.2462,3.5304"
           inkscape:connector-curvature="0" />
        <path
           id="path242"
           style="fill:none;stroke:#0000ff"
           d="m 3613.8544,3225.3213 17.6012,4.1236"
           inkscape:connector-curvature="0" />
        <path
           id="path244"
           style="fill:none;stroke:#0000ff"
           d="m 3631.4556,3229.4449 4.5665,1.2559"
           inkscape:connector-curvature="0" />
        <path
           id="path246"
           style="fill:none;stroke:#0000ff"
           d="m 3636.0221,3230.7008 17.8258,5.5121"
           inkscape:connector-curvature="0" />
        <path
           id="path248"
           style="fill:none;stroke:#0000ff"
           d="m 3653.8479,3236.2129 15.0444,4.1594"
           inkscape:connector-curvature="0" />
        <path
           id="path250"
           style="fill:none;stroke:#0000ff"
           d="m 3668.8923,3240.3723 12.5333,3.2269"
           inkscape:connector-curvature="0" />
        <path
           id="path252"
           style="fill:none;stroke:#0000ff"
           d="m 3681.4256,3243.5992 3.6616,1.0715"
           inkscape:connector-curvature="0" />
        <path
           id="path254"
           style="fill:none;stroke:#0000ff"
           d="m 3685.0872,3244.6707 8.4072,2.7434"
           inkscape:connector-curvature="0" />
        <path
           id="path256"
           style="fill:none;stroke:#0000ff"
           d="m 3693.4944,3247.4141 8.6726,2.9583"
           inkscape:connector-curvature="0" />
        <path
           id="path258"
           style="fill:none;stroke:#0000ff"
           d="m 3702.167,3250.3724 25.8843,9.5283"
           inkscape:connector-curvature="0" />
        <path
           id="path260"
           style="fill:none;stroke:#0000ff"
           d="m 3728.0513,3259.9007 v 74.3608"
           inkscape:connector-curvature="0" />
        <path
           id="path262"
           style="fill:none;stroke:#0000ff"
           d="m 3728.0513,3334.2615 a 11.716536,11.716536 0 0 0 0,23.433"
           inkscape:connector-curvature="0" />
        <path
           id="path264"
           style="fill:none;stroke:#0000ff"
           d="m 3728.0513,3357.6945 h 34.0157"
           inkscape:connector-curvature="0" />
        <path
           id="path266"
           style="fill:none;stroke:#0000ff"
           d="m 3762.067,3357.6945 v 66.5197"
           inkscape:connector-curvature="0" />
        <path
           id="path268"
           style="fill:none;stroke:#0000ff"
           d="m 3762.067,3424.2142 h -34.0157"
           inkscape:connector-curvature="0" />
        <path
           id="path270"
           style="fill:none;stroke:#0000ff"
           d="m 3728.0513,3424.2142 a 11.71655,11.71655 0 0 0 0,23.4331"
           inkscape:connector-curvature="0" />
        <path
           id="path272"
           style="fill:none;stroke:#0000ff"
           d="m 3728.0513,3447.6473 v 56.6929"
           inkscape:connector-curvature="0" />
        <path
           id="path274"
           style="fill:none;stroke:#0000ff"
           d="M 3728.0513,3504.3402 H 2662.2245"
           inkscape:connector-curvature="0" />
        <path
           id="path276"
           style="fill:none;stroke:#0000ff"
           d="m 2662.2245,3504.3402 v -56.6929"
           inkscape:connector-curvature="0" />
        <path
           id="path278"
           style="fill:none;stroke:#0000ff"
           d="m 2662.2245,3447.6473 a 11.71655,11.71655 0 0 0 0,-23.4331"
           inkscape:connector-curvature="0" />
        <path
           id="path280"
           style="fill:none;stroke:#0000ff"
           d="m 2662.2245,3424.2142 h -34.0157"
           inkscape:connector-curvature="0" />
        <path
           id="path282"
           style="fill:none;stroke:#0000ff"
           d="m 2628.2088,3424.2142 v -66.5197"
           inkscape:connector-curvature="0" />
        <path
           id="path284"
           style="fill:none;stroke:#0000ff"
           d="m 2628.2088,3357.6945 h 34.0157"
           inkscape:connector-curvature="0" />
        <path
           id="path286"
           style="fill:none;stroke:#0000ff"
           d="m 2662.2245,3357.6945 a 11.716536,11.716536 0 0 0 0,-23.433"
           inkscape:connector-curvature="0" />
        <path
           id="path288"
           style="fill:none;stroke:#0000ff"
           d="M 2662.2245,3334.2615 V 3106.8679"
           inkscape:connector-curvature="0" />
        <path
           id="path290"
           style="fill:none;stroke:#0000ff"
           d="m 2662.2245,3106.8679 a 11.71655,11.71655 0 0 0 0,-23.4331"
           inkscape:connector-curvature="0" />
        <path
           id="path292"
           style="fill:none;stroke:#0000ff"
           d="m 2662.2245,3083.4348 h -34.0157"
           inkscape:connector-curvature="0" />
        <path
           id="path294"
           style="fill:none;stroke:#0000ff"
           d="m 2628.2088,3083.4348 v -66.5196"
           inkscape:connector-curvature="0" />
        <path
           id="path296"
           style="fill:none;stroke:#0000ff"
           d="m 2628.2088,3016.9152 h 34.0157"
           inkscape:connector-curvature="0" />
        <path
           id="path298"
           style="fill:none;stroke:#0000ff"
           d="m 2662.2245,3016.9152 a 11.71655,11.71655 0 0 0 0,-23.4331"
           inkscape:connector-curvature="0" />
        <path
           id="path300"
           style="fill:none;stroke:#0000ff"
           d="m 2662.2245,2993.4821 v -35.9877"
           inkscape:connector-curvature="0" />
        <path
           id="path302"
           style="fill:none;stroke:#0000ff"
           d="m 2662.2245,2957.4944 16.0535,10.0016"
           inkscape:connector-curvature="0" />
        <path
           id="path304"
           style="fill:none;stroke:#0000ff"
           d="m 2678.278,2967.496 28.6656,19.0548"
           inkscape:connector-curvature="0" />
        <path
           id="path306"
           style="fill:none;stroke:#0000ff"
           d="m 2706.9436,2986.5508 13.4407,9.2539"
           inkscape:connector-curvature="0" />
        <path
           id="path308"
           style="fill:none;stroke:#0000ff"
           d="m 2720.3843,2995.8047 35.5643,26.3105"
           inkscape:connector-curvature="0" />
        <path
           id="path310"
           style="fill:none;stroke:#0000ff"
           d="m 2755.9486,3022.1152 25.8823,20.1016"
           inkscape:connector-curvature="0" />
        <path
           id="path312"
           style="fill:none;stroke:#0000ff"
           d="m 2781.8309,3042.2168 27.0241,22.3853"
           inkscape:connector-curvature="0" />
        <path
           id="path314"
           style="fill:none;stroke:#0000ff"
           d="m 2808.855,3064.6021 43.9618,38.5141"
           inkscape:connector-curvature="0" />
        <path
           id="path316"
           style="fill:none;stroke:#0000ff"
           d="m 2852.8168,3103.1162 27.2621,24.9783"
           inkscape:connector-curvature="0" />
        <path
           id="path318"
           style="fill:none;stroke:#0000ff"
           d="m 2880.0789,3128.0945 15.201,13.9641"
           inkscape:connector-curvature="0" />
        <path
           id="path320"
           style="fill:none;stroke:#0000ff"
           d="m 2895.2799,3142.0586 38.9583,38.1964"
           inkscape:connector-curvature="0" />
        <path
           id="path322"
           style="fill:none;stroke:#0000ff"
           d="m 2934.2382,3180.255 15.6874,17.9435"
           inkscape:connector-curvature="0" />
        <path
           id="path324"
           style="fill:none;stroke:#0000ff"
           d="m 2949.9256,3198.1985 h 37.3383"
           inkscape:connector-curvature="0" />
        <path
           id="path326"
           style="fill:none;stroke:#0000ff"
           d="m 2987.2639,3198.1985 h 37.7953"
           inkscape:connector-curvature="0" />
        <path
           id="path328"
           style="fill:none;stroke:#0000ff"
           d="m 3025.0592,3198.1985 v 34.0157"
           inkscape:connector-curvature="0" />
        <path
           id="path330"
           style="fill:none;stroke:#0000ff"
           d="m 3025.0592,3232.2142 h 188.9763"
           inkscape:connector-curvature="0" />
        <path
           id="path332"
           style="fill:none;stroke:#0000ff"
           d="m 3214.0355,3232.2142 v -34.0157"
           inkscape:connector-curvature="0" />
        <path
           id="path334"
           style="fill:none;stroke:#0000ff"
           d="m 3035.4419,2700.5135 a 56.692914,56.692914 0 1 0 -113.3858,0 56.692914,56.692914 0 1 0 113.3858,0 z"
           inkscape:connector-curvature="0" />
        <path
           id="path336"
           style="fill:none;stroke:#0000ff"
           d="m 3186.623,2776.104 a 18.897638,18.897638 0 1 0 -37.7952,0 18.897638,18.897638 0 1 0 37.7952,0 z"
           inkscape:connector-curvature="0" />
        <path
           id="path338"
           style="fill:none;stroke:#0000ff"
           d="m 2925.8356,2832.7969 a 18.897638,18.897638 0 1 0 -37.7952,0 18.897638,18.897638 0 1 0 37.7952,0 z"
           inkscape:connector-curvature="0" />
        <path
           id="path340"
           style="fill:none;stroke:#0000ff"
           d="m 2808.6703,2776.104 a 18.89765,18.89765 0 1 0 -37.7953,0 18.89765,18.89765 0 1 0 37.7953,0 z"
           inkscape:connector-curvature="0" />
        <path
           id="path342"
           style="fill:none;stroke:#0000ff"
           d="M 2808.6703,2587.1276 H 2770.875"
           inkscape:connector-curvature="0" />
        <path
           id="path344"
           style="fill:none;stroke:#0000ff"
           d="m 2770.875,2587.1276 -33.6026,16.0723"
           inkscape:connector-curvature="0" />
        <path
           id="path346"
           style="fill:none;stroke:#0000ff"
           d="m 2737.2724,2603.1999 h -19.4231"
           inkscape:connector-curvature="0" />
        <path
           id="path348"
           style="fill:none;stroke:#0000ff"
           d="m 2717.8493,2603.1999 -38.9582,-38.1964"
           inkscape:connector-curvature="0" />
        <path
           id="path350"
           style="fill:none;stroke:#0000ff"
           d="m 2678.8911,2565.0035 -29.5934,-27.3334"
           inkscape:connector-curvature="0" />
        <path
           id="path352"
           style="fill:none;stroke:#0000ff"
           d="m 2649.2977,2537.6701 -43.153,-38.1335"
           inkscape:connector-curvature="0" />
        <path
           id="path354"
           style="fill:none;stroke:#0000ff"
           d="m 2606.1447,2499.5366 -27.4761,-23.4559"
           inkscape:connector-curvature="0" />
        <path
           id="path356"
           style="fill:none;stroke:#0000ff"
           d="m 2578.6686,2476.0807 -25.3589,-20.4108"
           inkscape:connector-curvature="0" />
        <path
           id="path358"
           style="fill:none;stroke:#0000ff"
           d="m 2553.3097,2455.6699 -38.0384,-28.5942"
           inkscape:connector-curvature="0" />
        <path
           id="path360"
           style="fill:none;stroke:#0000ff"
           d="m 2515.2713,2427.0757 -11.2759,-8.3261"
           inkscape:connector-curvature="0" />
        <path
           id="path362"
           style="fill:none;stroke:#0000ff"
           d="m 2503.9954,2418.7496 -26.3818,-18.0319"
           inkscape:connector-curvature="0" />
        <path
           id="path364"
           style="fill:none;stroke:#0000ff"
           d="m 2477.6136,2400.7177 -15.7245,-10.2768"
           inkscape:connector-curvature="0" />
        <path
           id="path366"
           style="fill:none;stroke:#0000ff"
           d="m 2461.8891,2390.4409 -50.0692,-30.7068"
           inkscape:connector-curvature="0" />
        <path
           id="path368"
           style="fill:none;stroke:#0000ff"
           d="m 2411.8199,2359.7341 v 56.6929"
           inkscape:connector-curvature="0" />
        <path
           id="path370"
           style="fill:none;stroke:#0000ff"
           d="m 2411.8199,2416.427 h 34.0157"
           inkscape:connector-curvature="0" />
        <path
           id="path372"
           style="fill:none;stroke:#0000ff"
           d="m 2445.8356,2439.8601 a 11.71655,11.71655 0 0 0 0,-23.4331"
           inkscape:connector-curvature="0" />
        <path
           id="path374"
           style="fill:none;stroke:#0000ff"
           d="m 2445.8356,2439.8601 v 66.5197"
           inkscape:connector-curvature="0" />
        <path
           id="path376"
           style="fill:none;stroke:#0000ff"
           d="m 2445.8356,2529.8128 a 11.716536,11.716536 0 0 0 0,-23.433"
           inkscape:connector-curvature="0" />
        <path
           id="path378"
           style="fill:none;stroke:#0000ff"
           d="m 2445.8356,2529.8128 h -34.0157"
           inkscape:connector-curvature="0" />
        <path
           id="path380"
           style="fill:none;stroke:#0000ff"
           d="m 2411.8199,2529.8128 v 56.6929"
           inkscape:connector-curvature="0" />
        <path
           id="path382"
           style="fill:none;stroke:#0000ff"
           d="m 2411.8199,2586.5057 h 34.0157"
           inkscape:connector-curvature="0" />
        <path
           id="path384"
           style="fill:none;stroke:#0000ff"
           d="m 2445.8356,2586.5057 v 0.6219"
           inkscape:connector-curvature="0" />
        <path
           id="path386"
           style="fill:none;stroke:#0000ff"
           d="m 2445.8356,2610.5607 a 11.71655,11.71655 0 0 0 0,-23.4331"
           inkscape:connector-curvature="0" />
        <path
           id="path388"
           style="fill:none;stroke:#0000ff"
           d="m 2445.8356,2610.5607 v 66.5197"
           inkscape:connector-curvature="0" />
        <path
           id="path390"
           style="fill:none;stroke:#0000ff"
           d="m 2442.0692,2699.8916 a 11.716535,11.716535 0 1 0 3.7664,-22.8112"
           inkscape:connector-curvature="0" />
        <path
           id="path392"
           style="fill:none;stroke:#0000ff"
           d="m 2442.0692,2699.8916 h -30.2493"
           inkscape:connector-curvature="0" />
        <path
           id="path394"
           style="fill:none;stroke:#0000ff"
           d="m 2411.8199,2699.8916 v 57.3148"
           inkscape:connector-curvature="0" />
        <path
           id="path396"
           style="fill:none;stroke:#0000ff"
           d="m 2411.8199,2757.2064 h 34.0157"
           inkscape:connector-curvature="0" />
        <path
           id="path398"
           style="fill:none;stroke:#0000ff"
           d="m 2445.8356,2780.6394 a 11.716535,11.716535 0 0 0 0,-23.433"
           inkscape:connector-curvature="0" />
        <path
           id="path400"
           style="fill:none;stroke:#0000ff"
           d="m 2445.8356,2780.6394 v 66.5197"
           inkscape:connector-curvature="0" />
        <path
           id="path402"
           style="fill:none;stroke:#0000ff"
           d="m 2445.8356,2870.5922 a 11.71655,11.71655 0 0 0 0,-23.4331"
           inkscape:connector-curvature="0" />
        <path
           id="path404"
           style="fill:none;stroke:#0000ff"
           d="m 2445.8356,2870.5922 h -34.0157"
           inkscape:connector-curvature="0" />
        <path
           id="path406"
           style="fill:none;stroke:#0000ff"
           d="m 2411.8199,2870.5922 v 56.6929"
           inkscape:connector-curvature="0" />
        <path
           id="path408"
           style="fill:none;stroke:#0000ff"
           d="M 2411.8199,2927.2851 H 3545.6782"
           inkscape:connector-curvature="0" />
        <path
           id="path410"
           style="fill:none;stroke:#0000ff"
           d="m 3545.6782,2927.2851 v -56.6929"
           inkscape:connector-curvature="0" />
        <path
           id="path412"
           style="fill:none;stroke:#0000ff"
           d="m 3545.6782,2870.5922 h -34.0158"
           inkscape:connector-curvature="0" />
        <path
           id="path414"
           style="fill:none;stroke:#0000ff"
           d="m 3511.6624,2847.1591 a 11.71655,11.71655 0 0 0 0,23.4331"
           inkscape:connector-curvature="0" />
        <path
           id="path416"
           style="fill:none;stroke:#0000ff"
           d="m 3511.6624,2847.1591 v -66.5197"
           inkscape:connector-curvature="0" />
        <path
           id="path418"
           style="fill:none;stroke:#0000ff"
           d="m 3511.6624,2757.2064 a 11.716536,11.716536 0 0 0 0,23.433"
           inkscape:connector-curvature="0" />
        <path
           id="path420"
           style="fill:none;stroke:#0000ff"
           d="m 3511.6624,2757.2064 h 34.0158"
           inkscape:connector-curvature="0" />
        <path
           id="path422"
           style="fill:none;stroke:#0000ff"
           d="m 3545.6782,2757.2064 v -56.6929"
           inkscape:connector-curvature="0" />
        <path
           id="path424"
           style="fill:none;stroke:#0000ff"
           d="m 3545.6782,2700.5135 -3.727,-2.2664"
           inkscape:connector-curvature="0" />
        <path
           id="path426"
           style="fill:none;stroke:#0000ff"
           d="m 3541.9512,2698.2471 -3.8146,-2.2301"
           inkscape:connector-curvature="0" />
        <path
           id="path428"
           style="fill:none;stroke:#0000ff"
           d="m 3538.1366,2696.017 -7.0482,-3.9258"
           inkscape:connector-curvature="0" />
        <path
           id="path430"
           style="fill:none;stroke:#0000ff"
           d="m 3531.0884,2692.0912 -5.3335,-2.7655"
           inkscape:connector-curvature="0" />
        <path
           id="path432"
           style="fill:none;stroke:#0000ff"
           d="m 3525.7549,2689.3257 -8.3535,-3.9966"
           inkscape:connector-curvature="0" />
        <path
           id="path434"
           style="fill:none;stroke:#0000ff"
           d="m 3517.4014,2685.3291 -2.0154,-0.9172"
           inkscape:connector-curvature="0" />
        <path
           id="path436"
           style="fill:none;stroke:#0000ff"
           d="m 3515.386,2684.4119 -1.9716,-0.8543"
           inkscape:connector-curvature="0" />
        <path
           id="path438"
           style="fill:none;stroke:#0000ff"
           d="m 3513.4144,2683.5576 -1.9209,-0.7783"
           inkscape:connector-curvature="0" />
        <path
           id="path440"
           style="fill:none;stroke:#0000ff"
           d="m 3511.4935,2682.7793 -25.7154,-9.462"
           inkscape:connector-curvature="0" />
        <path
           id="path442"
           style="fill:none;stroke:#0000ff"
           d="m 3485.7781,2673.3173 -8.6726,-2.9583"
           inkscape:connector-curvature="0" />
        <path
           id="path444"
           style="fill:none;stroke:#0000ff"
           d="m 3477.1055,2670.359 -8.4072,-2.7434"
           inkscape:connector-curvature="0" />
        <path
           id="path446"
           style="fill:none;stroke:#0000ff"
           d="m 3468.6983,2667.6156 -3.6615,-1.0715"
           inkscape:connector-curvature="0" />
        <path
           id="path448"
           style="fill:none;stroke:#0000ff"
           d="m 3465.0368,2666.5441 -20.9785,-5.6037"
           inkscape:connector-curvature="0" />
        <path
           id="path450"
           style="fill:none;stroke:#0000ff"
           d="m 3444.0583,2660.9404 -6.5993,-1.7826"
           inkscape:connector-curvature="0" />
        <path
           id="path452"
           style="fill:none;stroke:#0000ff"
           d="m 3437.459,2659.1578 -17.8257,-5.5121"
           inkscape:connector-curvature="0" />
        <path
           id="path454"
           style="fill:none;stroke:#0000ff"
           d="m 3419.6333,2653.6457 -4.5666,-1.2559"
           inkscape:connector-curvature="0" />
        <path
           id="path456"
           style="fill:none;stroke:#0000ff"
           d="m 3415.0667,2652.3898 -17.6012,-4.1236"
           inkscape:connector-curvature="0" />
        <path
           id="path458"
           style="fill:none;stroke:#0000ff"
           d="m 3397.4655,2648.2662 -12.2462,-3.5303"
           inkscape:connector-curvature="0" />
        <path
           id="path460"
           style="fill:none;stroke:#0000ff"
           d="m 3385.2193,2644.7359 -2.1151,-0.549"
           inkscape:connector-curvature="0" />
        <path
           id="path462"
           style="fill:none;stroke:#0000ff"
           d="m 3383.1042,2644.1869 -5.7398,-1.2913"
           inkscape:connector-curvature="0" />
        <path
           id="path464"
           style="fill:none;stroke:#0000ff"
           d="m 3377.3644,2642.8956 -1.7266,-0.4131"
           inkscape:connector-curvature="0" />
        <path
           id="path466"
           style="fill:none;stroke:#0000ff"
           d="m 3375.6378,2642.4825 -1.663,-0.4548"
           inkscape:connector-curvature="0" />
        <path
           id="path468"
           style="fill:none;stroke:#0000ff"
           d="m 3373.9748,2642.0277 -5.5558,-1.6438"
           inkscape:connector-curvature="0" />
        <path
           id="path470"
           style="fill:none;stroke:#0000ff"
           d="m 3368.419,2640.3839 -4.9204,-1.2914"
           inkscape:connector-curvature="0" />
        <path
           id="path472"
           style="fill:none;stroke:#0000ff"
           d="m 3363.4986,2639.0925 -24.7354,-5.9584"
           inkscape:connector-curvature="0" />
        <path
           id="path474"
           style="fill:none;stroke:#0000ff"
           d="m 3338.7632,2633.1341 -3.404,-0.7275"
           inkscape:connector-curvature="0" />
        <path
           id="path476"
           style="fill:none;stroke:#0000ff"
           d="m 3335.3592,2632.4066 -29.9498,-5.6638"
           inkscape:connector-curvature="0" />
        <path
           id="path478"
           style="fill:none;stroke:#0000ff"
           d="m 3305.4094,2626.7428 -6.2593,-1.4137"
           inkscape:connector-curvature="0" />
        <path
           id="path480"
           style="fill:none;stroke:#0000ff"
           d="m 3299.1501,2625.3291 -2.2616,-0.47"
           inkscape:connector-curvature="0" />
        <path
           id="path482"
           style="fill:none;stroke:#0000ff"
           d="m 3296.8885,2624.8591 -20.8726,-3.641"
           inkscape:connector-curvature="0" />
        <path
           id="path484"
           style="fill:none;stroke:#0000ff"
           d="m 3276.0159,2621.2181 -21.846,-3.4388"
           inkscape:connector-curvature="0" />
        <path
           id="path486"
           style="fill:none;stroke:#0000ff"
           d="m 3254.1699,2617.7793 -10.5058,-1.5423"
           inkscape:connector-curvature="0" />
        <path
           id="path488"
           style="fill:none;stroke:#0000ff"
           d="m 3243.6641,2616.237 -16.694,-1.8632"
           inkscape:connector-curvature="0" />
        <path
           id="path490"
           style="fill:none;stroke:#0000ff"
           d="m 3226.9701,2614.3738 -4.709,-0.3899"
           inkscape:connector-curvature="0" />
        <path
           id="path492"
           style="fill:none;stroke:#0000ff"
           d="m 3222.2611,2613.9839 -5.6658,-0.2875"
           inkscape:connector-curvature="0" />
        <path
           id="path494"
           style="fill:none;stroke:#0000ff"
           d="m 3216.5953,2613.6964 -6.9031,-0.1121"
           inkscape:connector-curvature="0" />
        <path
           id="path496"
           style="fill:none;stroke:#0000ff"
           d="m 3209.6922,2613.5843 h -16.708"
           inkscape:connector-curvature="0" />
        <path
           id="path498"
           style="fill:none;stroke:#0000ff"
           d="M 3192.9842,2613.5843 H 3075.5007"
           inkscape:connector-curvature="0" />
        <path
           id="path500"
           style="fill:none;stroke:#0000ff"
           d="m 3075.5007,2613.5843 -40.0588,-26.4567"
           inkscape:connector-curvature="0" />
        <path
           id="path502"
           style="fill:none;stroke:#0000ff"
           d="m 3035.4419,2587.1276 h -37.7952"
           inkscape:connector-curvature="0" />
        <path
           id="path504"
           style="fill:none;stroke:#0000ff"
           d="m 2770.875,2587.1276 h 37.7953"
           inkscape:connector-curvature="0" />
        <path
           id="path506"
           style="fill:none;stroke:#0000ff"
           d="m 2808.6703,2587.1276 v 34.0158"
           inkscape:connector-curvature="0" />
        <path
           id="path508"
           style="fill:none;stroke:#0000ff"
           d="m 2808.6703,2621.1434 a 11.716536,11.716536 0 0 0 23.433,0"
           inkscape:connector-curvature="0" />
        <path
           id="path510"
           style="fill:none;stroke:#0000ff"
           d="m 2832.1033,2621.1434 h 142.1103"
           inkscape:connector-curvature="0" />
        <path
           id="path512"
           style="fill:none;stroke:#0000ff"
           d="m 2974.2136,2621.1434 a 11.71655,11.71655 0 0 0 23.4331,0"
           inkscape:connector-curvature="0" />
        <path
           id="path514"
           style="fill:none;stroke:#0000ff"
           d="m 2997.6467,2621.1434 v -34.0158"
           inkscape:connector-curvature="0" />
        <path
           id="path516"
           style="fill:none;stroke:#0000ff"
           d="m 2997.6467,2587.1276 h 37.7952"
           inkscape:connector-curvature="0" />
        <path
           id="path518"
           style="fill:none;stroke:#0000ff"
           d="m 3229.032,2475.5492 a 56.692914,56.692914 0 1 0 -113.3858,0 56.692914,56.692914 0 1 0 113.3858,0 z"
           inkscape:connector-curvature="0" />
        <path
           id="path520"
           style="fill:none;stroke:#0000ff"
           d="m 3002.2604,2399.9587 a 18.89765,18.89765 0 1 0 -37.7953,0 18.89765,18.89765 0 1 0 37.7953,0 z"
           inkscape:connector-curvature="0" />
        <path
           id="path522"
           style="fill:none;stroke:#0000ff"
           d="m 3263.0478,2343.2658 a 18.89765,18.89765 0 1 0 -37.7953,0 18.89765,18.89765 0 1 0 37.7953,0 z"
           inkscape:connector-curvature="0" />
        <path
           id="path524"
           style="fill:none;stroke:#0000ff"
           d="m 3380.2131,2399.9587 a 18.897638,18.897638 0 1 0 -37.7952,0 18.897638,18.897638 0 1 0 37.7952,0 z"
           inkscape:connector-curvature="0" />
        <path
           id="path526"
           style="fill:none;stroke:#0000ff"
           d="m 3342.4179,2588.9351 h 37.7952"
           inkscape:connector-curvature="0" />
        <path
           id="path528"
           style="fill:none;stroke:#0000ff"
           d="m 3380.2131,2588.9351 33.6027,-16.0723"
           inkscape:connector-curvature="0" />
        <path
           id="path530"
           style="fill:none;stroke:#0000ff"
           d="m 3413.8158,2572.8628 h 19.4231"
           inkscape:connector-curvature="0" />
        <path
           id="path532"
           style="fill:none;stroke:#0000ff"
           d="m 3433.2389,2572.8628 38.9582,38.1964"
           inkscape:connector-curvature="0" />
        <path
           id="path534"
           style="fill:none;stroke:#0000ff"
           d="m 3472.1971,2611.0592 29.5933,27.3334"
           inkscape:connector-curvature="0" />
        <path
           id="path536"
           style="fill:none;stroke:#0000ff"
           d="m 3501.7904,2638.3926 43.153,38.1335"
           inkscape:connector-curvature="0" />
        <path
           id="path538"
           style="fill:none;stroke:#0000ff"
           d="m 3544.9434,2676.5261 27.4761,23.4558"
           inkscape:connector-curvature="0" />
        <path
           id="path540"
           style="fill:none;stroke:#0000ff"
           d="m 3572.4195,2699.9819 25.3589,20.4109"
           inkscape:connector-curvature="0" />
        <path
           id="path542"
           style="fill:none;stroke:#0000ff"
           d="m 3597.7784,2720.3928 38.0384,28.5942"
           inkscape:connector-curvature="0" />
        <path
           id="path544"
           style="fill:none;stroke:#0000ff"
           d="m 3635.8168,2748.987 11.2759,8.3261"
           inkscape:connector-curvature="0" />
        <path
           id="path546"
           style="fill:none;stroke:#0000ff"
           d="m 3647.0927,2757.3131 26.3819,18.0319"
           inkscape:connector-curvature="0" />
        <path
           id="path548"
           style="fill:none;stroke:#0000ff"
           d="m 3673.4746,2775.345 15.7244,10.2768"
           inkscape:connector-curvature="0" />
        <path
           id="path550"
           style="fill:none;stroke:#0000ff"
           d="m 3689.199,2785.6218 50.0693,30.7068"
           inkscape:connector-curvature="0" />
        <path
           id="path552"
           style="fill:none;stroke:#0000ff"
           d="m 3739.2683,2816.3286 v -56.6929"
           inkscape:connector-curvature="0" />
        <path
           id="path554"
           style="fill:none;stroke:#0000ff"
           d="m 3739.2683,2759.6357 h -34.0158"
           inkscape:connector-curvature="0" />
        <path
           id="path556"
           style="fill:none;stroke:#0000ff"
           d="m 3705.2525,2736.2026 a 11.71655,11.71655 0 0 0 0,23.4331"
           inkscape:connector-curvature="0" />
        <path
           id="path558"
           style="fill:none;stroke:#0000ff"
           d="m 3705.2525,2736.2026 v -66.5197"
           inkscape:connector-curvature="0" />
        <path
           id="path560"
           style="fill:none;stroke:#0000ff"
           d="m 3705.2525,2646.2499 a 11.716535,11.716535 0 0 0 0,23.433"
           inkscape:connector-curvature="0" />
        <path
           id="path562"
           style="fill:none;stroke:#0000ff"
           d="m 3705.2525,2646.2499 h 34.0158"
           inkscape:connector-curvature="0" />
        <path
           id="path564"
           style="fill:none;stroke:#0000ff"
           d="m 3739.2683,2646.2499 v -56.693"
           inkscape:connector-curvature="0" />
        <path
           id="path566"
           style="fill:none;stroke:#0000ff"
           d="m 3739.2683,2589.5569 h -34.0158"
           inkscape:connector-curvature="0" />
        <path
           id="path568"
           style="fill:none;stroke:#0000ff"
           d="m 3705.2525,2589.5569 v -0.6218"
           inkscape:connector-curvature="0" />
        <path
           id="path570"
           style="fill:none;stroke:#0000ff"
           d="m 3705.2525,2565.502 a 11.71655,11.71655 0 0 0 0,23.4331"
           inkscape:connector-curvature="0" />
        <path
           id="path572"
           style="fill:none;stroke:#0000ff"
           d="m 3705.2525,2565.502 v -66.5197"
           inkscape:connector-curvature="0" />
        <path
           id="path574"
           style="fill:none;stroke:#0000ff"
           d="m 3709.0189,2476.1711 a 11.716535,11.716535 0 1 0 -3.7664,22.8112"
           inkscape:connector-curvature="0" />
        <path
           id="path576"
           style="fill:none;stroke:#0000ff"
           d="m 3709.0189,2476.1711 h 30.2494"
           inkscape:connector-curvature="0" />
        <path
           id="path578"
           style="fill:none;stroke:#0000ff"
           d="m 3739.2683,2476.1711 v -57.3148"
           inkscape:connector-curvature="0" />
        <path
           id="path580"
           style="fill:none;stroke:#0000ff"
           d="m 3739.2683,2418.8563 h -34.0158"
           inkscape:connector-curvature="0" />
        <path
           id="path582"
           style="fill:none;stroke:#0000ff"
           d="m 3705.2525,2395.4232 a 11.71655,11.71655 0 0 0 0,23.4331"
           inkscape:connector-curvature="0" />
        <path
           id="path584"
           style="fill:none;stroke:#0000ff"
           d="m 3705.2525,2395.4232 v -66.5196"
           inkscape:connector-curvature="0" />
        <path
           id="path586"
           style="fill:none;stroke:#0000ff"
           d="m 3705.2525,2305.4705 a 11.71655,11.71655 0 0 0 0,23.4331"
           inkscape:connector-curvature="0" />
        <path
           id="path588"
           style="fill:none;stroke:#0000ff"
           d="m 3705.2525,2305.4705 h 34.0158"
           inkscape:connector-curvature="0" />
        <path
           id="path590"
           style="fill:none;stroke:#0000ff"
           d="m 3739.2683,2305.4705 v -56.6929"
           inkscape:connector-curvature="0" />
        <path
           id="path592"
           style="fill:none;stroke:#0000ff"
           d="M 3739.2683,2248.7776 H 2605.41"
           inkscape:connector-curvature="0" />
        <path
           id="path594"
           style="fill:none;stroke:#0000ff"
           d="m 2605.41,2248.7776 v 56.6929"
           inkscape:connector-curvature="0" />
        <path
           id="path596"
           style="fill:none;stroke:#0000ff"
           d="m 2605.41,2305.4705 h 34.0157"
           inkscape:connector-curvature="0" />
        <path
           id="path598"
           style="fill:none;stroke:#0000ff"
           d="m 2639.4257,2328.9036 a 11.71655,11.71655 0 0 0 0,-23.4331"
           inkscape:connector-curvature="0" />
        <path
           id="path600"
           style="fill:none;stroke:#0000ff"
           d="m 2639.4257,2328.9036 v 66.5196"
           inkscape:connector-curvature="0" />
        <path
           id="path602"
           style="fill:none;stroke:#0000ff"
           d="m 2639.4257,2418.8563 a 11.71655,11.71655 0 0 0 0,-23.4331"
           inkscape:connector-curvature="0" />
        <path
           id="path604"
           style="fill:none;stroke:#0000ff"
           d="M 2639.4257,2418.8563 H 2605.41"
           inkscape:connector-curvature="0" />
        <path
           id="path606"
           style="fill:none;stroke:#0000ff"
           d="m 2605.41,2418.8563 v 56.6929"
           inkscape:connector-curvature="0" />
        <path
           id="path608"
           style="fill:none;stroke:#0000ff"
           d="m 2605.41,2475.5492 3.727,2.2664"
           inkscape:connector-curvature="0" />
        <path
           id="path610"
           style="fill:none;stroke:#0000ff"
           d="m 2609.137,2477.8156 3.8146,2.2301"
           inkscape:connector-curvature="0" />
        <path
           id="path612"
           style="fill:none;stroke:#0000ff"
           d="m 2612.9516,2480.0457 7.0481,3.9258"
           inkscape:connector-curvature="0" />
        <path
           id="path614"
           style="fill:none;stroke:#0000ff"
           d="m 2619.9997,2483.9715 5.3335,2.7655"
           inkscape:connector-curvature="0" />
        <path
           id="path616"
           style="fill:none;stroke:#0000ff"
           d="m 2625.3332,2486.737 8.3535,3.9966"
           inkscape:connector-curvature="0" />
        <path
           id="path618"
           style="fill:none;stroke:#0000ff"
           d="m 2633.6867,2490.7336 2.0155,0.9171"
           inkscape:connector-curvature="0" />
        <path
           id="path620"
           style="fill:none;stroke:#0000ff"
           d="m 2635.7022,2491.6507 1.9716,0.8544"
           inkscape:connector-curvature="0" />
        <path
           id="path622"
           style="fill:none;stroke:#0000ff"
           d="m 2637.6738,2492.5051 1.9208,0.7783"
           inkscape:connector-curvature="0" />
        <path
           id="path624"
           style="fill:none;stroke:#0000ff"
           d="m 2639.5946,2493.2834 25.7154,9.462"
           inkscape:connector-curvature="0" />
        <path
           id="path626"
           style="fill:none;stroke:#0000ff"
           d="m 2665.31,2502.7454 8.6727,2.9583"
           inkscape:connector-curvature="0" />
        <path
           id="path628"
           style="fill:none;stroke:#0000ff"
           d="m 2673.9827,2505.7037 8.4071,2.7434"
           inkscape:connector-curvature="0" />
        <path
           id="path630"
           style="fill:none;stroke:#0000ff"
           d="m 2682.3898,2508.4471 3.6616,1.0715"
           inkscape:connector-curvature="0" />
        <path
           id="path632"
           style="fill:none;stroke:#0000ff"
           d="m 2686.0514,2509.5186 20.9784,5.6037"
           inkscape:connector-curvature="0" />
        <path
           id="path634"
           style="fill:none;stroke:#0000ff"
           d="m 2707.0298,2515.1223 6.5993,1.7826"
           inkscape:connector-curvature="0" />
        <path
           id="path636"
           style="fill:none;stroke:#0000ff"
           d="m 2713.6291,2516.9049 17.8258,5.512"
           inkscape:connector-curvature="0" />
        <path
           id="path638"
           style="fill:none;stroke:#0000ff"
           d="m 2731.4549,2522.4169 4.5665,1.256"
           inkscape:connector-curvature="0" />
        <path
           id="path640"
           style="fill:none;stroke:#0000ff"
           d="m 2736.0214,2523.6729 17.6013,4.1235"
           inkscape:connector-curvature="0" />
        <path
           id="path642"
           style="fill:none;stroke:#0000ff"
           d="m 2753.6227,2527.7964 12.2461,3.5304"
           inkscape:connector-curvature="0" />
        <path
           id="path644"
           style="fill:none;stroke:#0000ff"
           d="m 2765.8688,2531.3268 2.1152,0.5489"
           inkscape:connector-curvature="0" />
        <path
           id="path646"
           style="fill:none;stroke:#0000ff"
           d="m 2767.984,2531.8757 5.7398,1.2914"
           inkscape:connector-curvature="0" />
        <path
           id="path648"
           style="fill:none;stroke:#0000ff"
           d="m 2773.7238,2533.1671 1.7265,0.413"
           inkscape:connector-curvature="0" />
        <path
           id="path650"
           style="fill:none;stroke:#0000ff"
           d="m 2775.4503,2533.5801 1.663,0.4548"
           inkscape:connector-curvature="0" />
        <path
           id="path652"
           style="fill:none;stroke:#0000ff"
           d="m 2777.1133,2534.0349 5.5558,1.6439"
           inkscape:connector-curvature="0" />
        <path
           id="path654"
           style="fill:none;stroke:#0000ff"
           d="m 2782.6691,2535.6788 4.9204,1.2913"
           inkscape:connector-curvature="0" />
        <path
           id="path656"
           style="fill:none;stroke:#0000ff"
           d="m 2787.5895,2536.9701 24.7354,5.9585"
           inkscape:connector-curvature="0" />
        <path
           id="path658"
           style="fill:none;stroke:#0000ff"
           d="m 2812.3249,2542.9286 3.404,0.7275"
           inkscape:connector-curvature="0" />
        <path
           id="path660"
           style="fill:none;stroke:#0000ff"
           d="m 2815.7289,2543.6561 29.9498,5.6638"
           inkscape:connector-curvature="0" />
        <path
           id="path662"
           style="fill:none;stroke:#0000ff"
           d="m 2845.6787,2549.3199 6.2594,1.4137"
           inkscape:connector-curvature="0" />
        <path
           id="path664"
           style="fill:none;stroke:#0000ff"
           d="m 2851.9381,2550.7336 2.2616,0.47"
           inkscape:connector-curvature="0" />
        <path
           id="path666"
           style="fill:none;stroke:#0000ff"
           d="m 2854.1997,2551.2036 20.8725,3.641"
           inkscape:connector-curvature="0" />
        <path
           id="path668"
           style="fill:none;stroke:#0000ff"
           d="m 2875.0722,2554.8446 21.846,3.4387"
           inkscape:connector-curvature="0" />
        <path
           id="path670"
           style="fill:none;stroke:#0000ff"
           d="m 2896.9182,2558.2833 10.5059,1.5424"
           inkscape:connector-curvature="0" />
        <path
           id="path672"
           style="fill:none;stroke:#0000ff"
           d="m 2907.4241,2559.8257 16.6939,1.8632"
           inkscape:connector-curvature="0" />
        <path
           id="path674"
           style="fill:none;stroke:#0000ff"
           d="m 2924.118,2561.6889 4.709,0.3899"
           inkscape:connector-curvature="0" />
        <path
           id="path676"
           style="fill:none;stroke:#0000ff"
           d="m 2928.827,2562.0788 5.6658,0.2875"
           inkscape:connector-curvature="0" />
        <path
           id="path678"
           style="fill:none;stroke:#0000ff"
           d="m 2934.4928,2562.3663 6.9032,0.1121"
           inkscape:connector-curvature="0" />
        <path
           id="path680"
           style="fill:none;stroke:#0000ff"
           d="m 2941.396,2562.4784 h 16.708"
           inkscape:connector-curvature="0" />
        <path
           id="path682"
           style="fill:none;stroke:#0000ff"
           d="m 2958.104,2562.4784 h 117.4834"
           inkscape:connector-curvature="0" />
        <path
           id="path684"
           style="fill:none;stroke:#0000ff"
           d="m 3075.5874,2562.4784 40.0588,26.4567"
           inkscape:connector-curvature="0" />
        <path
           id="path686"
           style="fill:none;stroke:#0000ff"
           d="m 3115.6462,2588.9351 h 37.7953"
           inkscape:connector-curvature="0" />
        <path
           id="path688"
           style="fill:none;stroke:#0000ff"
           d="m 3380.2131,2588.9351 h -37.7952"
           inkscape:connector-curvature="0" />
        <path
           id="path690"
           style="fill:none;stroke:#0000ff"
           d="m 3342.4179,2588.9351 v -34.0158"
           inkscape:connector-curvature="0" />
        <path
           id="path692"
           style="fill:none;stroke:#0000ff"
           d="m 3342.4179,2554.9193 a 11.71655,11.71655 0 0 0 -23.4331,0"
           inkscape:connector-curvature="0" />
        <path
           id="path694"
           style="fill:none;stroke:#0000ff"
           d="M 3318.9848,2554.9193 H 3176.8746"
           inkscape:connector-curvature="0" />
        <path
           id="path696"
           style="fill:none;stroke:#0000ff"
           d="m 3176.8746,2554.9193 a 11.71655,11.71655 0 0 0 -23.4331,0"
           inkscape:connector-curvature="0" />
        <path
           id="path698"
           style="fill:none;stroke:#0000ff"
           d="m 3153.4415,2554.9193 v 34.0158"
           inkscape:connector-curvature="0" />
        <path
           id="path700"
           style="fill:none;stroke:#0000ff"
           d="m 3153.4415,2588.9351 h -37.7953"
           inkscape:connector-curvature="0" />
        <path
           id="path702"
           style="fill:none;stroke:#0000ff"
           d="m 6047.1022,2009.9483 v 188.9764"
           inkscape:connector-curvature="0" />
        <path
           id="path704"
           style="fill:none;stroke:#0000ff"
           d="m 6047.1022,2198.9247 h -34.0158"
           inkscape:connector-curvature="0" />
        <path
           id="path706"
           style="fill:none;stroke:#0000ff"
           d="m 6013.0864,2198.9247 a 11.716535,11.716535 0 0 0 0,23.433"
           inkscape:connector-curvature="0" />
        <path
           id="path708"
           style="fill:none;stroke:#0000ff"
           d="m 6013.0864,2222.3577 v 14.3622"
           inkscape:connector-curvature="0" />
        <path
           id="path710"
           style="fill:none;stroke:#0000ff"
           d="M 6013.0864,2236.7199 H 3813.4014"
           inkscape:connector-curvature="0" />
        <path
           id="path712"
           style="fill:none;stroke:#0000ff"
           d="m 3813.4014,2236.7199 v -14.3622"
           inkscape:connector-curvature="0" />
        <path
           id="path714"
           style="fill:none;stroke:#0000ff"
           d="m 3813.4014,2222.3577 a 11.716536,11.716536 0 0 0 0,-23.433"
           inkscape:connector-curvature="0" />
        <path
           id="path716"
           style="fill:none;stroke:#0000ff"
           d="m 3813.4014,2198.9247 h -34.0158"
           inkscape:connector-curvature="0" />
        <path
           id="path718"
           style="fill:none;stroke:#0000ff"
           d="M 3779.3856,2198.9247 V 2009.9483"
           inkscape:connector-curvature="0" />
        <path
           id="path720"
           style="fill:none;stroke:#0000ff"
           d="m 3779.3856,2009.9483 h 34.0158"
           inkscape:connector-curvature="0" />
        <path
           id="path722"
           style="fill:none;stroke:#0000ff"
           d="m 3813.4014,2009.9483 a 11.71655,11.71655 0 0 0 0,-23.4331"
           inkscape:connector-curvature="0" />
        <path
           id="path724"
           style="fill:none;stroke:#0000ff"
           d="M 3813.4014,1986.5152 V 1972.153"
           inkscape:connector-curvature="0" />
        <path
           id="path726"
           style="fill:none;stroke:#0000ff"
           d="m 3813.4014,1972.153 h 2199.685"
           inkscape:connector-curvature="0" />
        <path
           id="path728"
           style="fill:none;stroke:#0000ff"
           d="m 6013.0864,1972.153 v 14.3622"
           inkscape:connector-curvature="0" />
        <path
           id="path730"
           style="fill:none;stroke:#0000ff"
           d="m 6013.0864,1986.5152 a 11.71655,11.71655 0 0 0 0,23.4331"
           inkscape:connector-curvature="0" />
        <path
           id="path732"
           style="fill:none;stroke:#0000ff"
           d="m 6013.0864,2009.9483 h 34.0158"
           inkscape:connector-curvature="0" />
        <path
           id="path734"
           style="fill:none;stroke:#0000ff"
           d="M 6047.1022,2316.6706 V 2505.647"
           inkscape:connector-curvature="0" />
        <path
           id="path736"
           style="fill:none;stroke:#0000ff"
           d="m 6047.1022,2505.647 h -34.0158"
           inkscape:connector-curvature="0" />
        <path
           id="path738"
           style="fill:none;stroke:#0000ff"
           d="m 6013.0864,2505.647 a 11.71655,11.71655 0 0 0 0,23.4331"
           inkscape:connector-curvature="0" />
        <path
           id="path740"
           style="fill:none;stroke:#0000ff"
           d="m 6013.0864,2529.0801 v 14.3622"
           inkscape:connector-curvature="0" />
        <path
           id="path742"
           style="fill:none;stroke:#0000ff"
           d="M 6013.0864,2543.4423 H 3813.4014"
           inkscape:connector-curvature="0" />
        <path
           id="path744"
           style="fill:none;stroke:#0000ff"
           d="m 3813.4014,2543.4423 v -14.3622"
           inkscape:connector-curvature="0" />
        <path
           id="path746"
           style="fill:none;stroke:#0000ff"
           d="m 3813.4014,2529.0801 a 11.71655,11.71655 0 0 0 0,-23.4331"
           inkscape:connector-curvature="0" />
        <path
           id="path748"
           style="fill:none;stroke:#0000ff"
           d="m 3813.4014,2505.647 h -34.0158"
           inkscape:connector-curvature="0" />
        <path
           id="path750"
           style="fill:none;stroke:#0000ff"
           d="M 3779.3856,2505.647 V 2316.6706"
           inkscape:connector-curvature="0" />
        <path
           id="path752"
           style="fill:none;stroke:#0000ff"
           d="m 3779.3856,2316.6706 h 34.0158"
           inkscape:connector-curvature="0" />
        <path
           id="path754"
           style="fill:none;stroke:#0000ff"
           d="m 3813.4014,2316.6706 a 11.71655,11.71655 0 0 0 0,-23.4331"
           inkscape:connector-curvature="0" />
        <path
           id="path756"
           style="fill:none;stroke:#0000ff"
           d="m 3813.4014,2293.2375 v -14.3622"
           inkscape:connector-curvature="0" />
        <path
           id="path758"
           style="fill:none;stroke:#0000ff"
           d="m 3813.4014,2278.8753 h 2199.685"
           inkscape:connector-curvature="0" />
        <path
           id="path760"
           style="fill:none;stroke:#0000ff"
           d="m 6013.0864,2278.8753 v 14.3622"
           inkscape:connector-curvature="0" />
        <path
           id="path762"
           style="fill:none;stroke:#0000ff"
           d="m 6013.0864,2293.2375 a 11.71655,11.71655 0 0 0 0,23.4331"
           inkscape:connector-curvature="0" />
        <path
           id="path764"
           style="fill:none;stroke:#0000ff"
           d="m 6013.0864,2316.6706 h 34.0158"
           inkscape:connector-curvature="0" />
        <path
           id="path766"
           style="fill:none;stroke:#0000ff"
           d="m 4676.9188,2423.6312 v -24.9448"
           inkscape:connector-curvature="0" />
        <path
           id="path768"
           style="fill:none;stroke:#0000ff"
           d="m 4676.9188,2398.6864 a 11.71655,11.71655 0 0 0 0,-23.4331"
           inkscape:connector-curvature="0" />
        <path
           id="path770"
           style="fill:none;stroke:#0000ff"
           d="m 4676.9188,2375.2533 h -52.9134"
           inkscape:connector-curvature="0" />
        <path
           id="path772"
           style="fill:none;stroke:#0000ff"
           d="m 4624.0054,2375.2533 a 11.71655,11.71655 0 0 0 0,23.4331"
           inkscape:connector-curvature="0" />
        <path
           id="path774"
           style="fill:none;stroke:#0000ff"
           d="m 4624.0054,2398.6864 v 24.9448"
           inkscape:connector-curvature="0" />
        <path
           id="path776"
           style="fill:none;stroke:#0000ff"
           d="m 4624.0054,2423.6312 a 11.71655,11.71655 0 0 0 0,23.4331"
           inkscape:connector-curvature="0" />
        <path
           id="path778"
           style="fill:none;stroke:#0000ff"
           d="m 4624.0054,2447.0643 h 52.9134"
           inkscape:connector-curvature="0" />
        <path
           id="path780"
           style="fill:none;stroke:#0000ff"
           d="m 4676.9188,2447.0643 a 11.71655,11.71655 0 0 0 0,-23.4331"
           inkscape:connector-curvature="0" />
      </g>
      <g
         id="g790"
         inkscape:label="FRESADO_5_MM">
        <path
           id="path784"
           style="fill:none;stroke:#ff0000"
           d="M 3862.9132,2411.1588 H 5963.5746"
           inkscape:connector-curvature="0" />
        <path
           id="path786"
           style="fill:none;stroke:#ff0000"
           d="M 4264.1581,2104.4365 H 3862.9132"
           inkscape:connector-curvature="0" />
        <path
           id="path788"
           style="fill:none;stroke:#ff0000"
           d="M 4736.599,2104.4365 H 5963.5746"
           inkscape:connector-curvature="0" />
      </g>
      <g
         id="g842"
         inkscape:label="FESADO_3_MM">
        <path
           id="path792"
           style="fill:none;stroke:#00ff00"
           d="m 3862.9132,2373.3635 v 75.5906"
           inkscape:connector-curvature="0" />
        <path
           id="path794"
           style="fill:none;stroke:#00ff00"
           d="m 4387.6802,2373.3635 v 75.5906"
           inkscape:connector-curvature="0" />
        <path
           id="path796"
           style="fill:none;stroke:#00ff00"
           d="m 4912.4473,2373.3635 v 75.5906"
           inkscape:connector-curvature="0" />
        <path
           id="path798"
           style="fill:none;stroke:#00ff00"
           d="m 5437.2143,2373.3635 v 75.5906"
           inkscape:connector-curvature="0" />
        <path
           id="path800"
           style="fill:none;stroke:#00ff00"
           d="m 4912.4473,2066.6412 v 75.5906"
           inkscape:connector-curvature="0" />
        <path
           id="path802"
           style="fill:none;stroke:#00ff00"
           d="m 5437.2143,2066.6412 v 75.5906"
           inkscape:connector-curvature="0" />
        <path
           id="path804"
           style="fill:none;stroke:#00ff00"
           d="m 5905.2885,2373.3635 v 75.5906"
           inkscape:connector-curvature="0" />
        <path
           id="path806"
           style="fill:none;stroke:#00ff00"
           d="m 5905.2885,2066.6412 v 75.5906"
           inkscape:connector-curvature="0" />
        <path
           id="path808"
           style="fill:none;stroke:#00ff00"
           d="m 3919.6061,2066.6412 v 75.5906"
           inkscape:connector-curvature="0" />
        <path
           id="path810"
           style="fill:none;stroke:#00ff00"
           d="M 5205.283,2164.9089 H 4997.4089"
           inkscape:connector-curvature="0" />
        <path
           id="path812"
           style="fill:none;stroke:#00ff00"
           d="m 4997.4089,2164.9089 v 30.2362"
           inkscape:connector-curvature="0" />
        <path
           id="path814"
           style="fill:none;stroke:#00ff00"
           d="M 4997.4089,2195.1451 H 5205.283"
           inkscape:connector-curvature="0" />
        <path
           id="path816"
           style="fill:none;stroke:#00ff00"
           d="m 5205.283,2195.1451 v -30.2362"
           inkscape:connector-curvature="0" />
        <path
           id="path818"
           style="fill:none;stroke:#00ff00"
           d="M 5413.157,2043.964 H 5205.283"
           inkscape:connector-curvature="0" />
        <path
           id="path820"
           style="fill:none;stroke:#00ff00"
           d="m 5205.283,2043.964 v -30.2362"
           inkscape:connector-curvature="0" />
        <path
           id="path822"
           style="fill:none;stroke:#00ff00"
           d="m 5205.283,2013.7278 h 207.874"
           inkscape:connector-curvature="0" />
        <path
           id="path824"
           style="fill:none;stroke:#00ff00"
           d="m 5413.157,2013.7278 v 30.2362"
           inkscape:connector-curvature="0" />
        <path
           id="path826"
           style="fill:none;stroke:#00ff00"
           d="m 4736.599,2016.3735 a 11.71655,11.71655 0 0 0 0,-23.4331"
           inkscape:connector-curvature="0" />
        <path
           id="path828"
           style="fill:none;stroke:#00ff00"
           d="M 4736.599,1992.9404 H 4264.1581"
           inkscape:connector-curvature="0" />
        <path
           id="path830"
           style="fill:none;stroke:#00ff00"
           d="m 4264.1581,1992.9404 a 11.71655,11.71655 0 0 0 0,23.4331"
           inkscape:connector-curvature="0" />
        <path
           id="path832"
           style="fill:none;stroke:#00ff00"
           d="m 4264.1581,2016.3735 v 176.126"
           inkscape:connector-curvature="0" />
        <path
           id="path834"
           style="fill:none;stroke:#00ff00"
           d="m 4264.1581,2192.4995 a 11.716536,11.716536 0 0 0 0,23.433"
           inkscape:connector-curvature="0" />
        <path
           id="path836"
           style="fill:none;stroke:#00ff00"
           d="M 4264.1581,2215.9325 H 4736.599"
           inkscape:connector-curvature="0" />
        <path
           id="path838"
           style="fill:none;stroke:#00ff00"
           d="m 4736.599,2215.9325 a 11.716535,11.716535 0 0 0 0,-23.433"
           inkscape:connector-curvature="0" />
        <path
           id="path840"
           style="fill:none;stroke:#00ff00"
           d="m 4736.599,2192.4995 v -176.126"
           inkscape:connector-curvature="0" />
      </g>
    </g>
  </g>
</svg>
