<?xml version="1.0" encoding="UTF-8" standalone="no"?>
<!-- Created with Inkscape (http://www.inkscape.org/) -->

<svg
   xmlns:dc="http://purl.org/dc/elements/1.1/"
   xmlns:cc="http://creativecommons.org/ns#"
   xmlns:rdf="http://www.w3.org/1999/02/22-rdf-syntax-ns#"
   xmlns:svg="http://www.w3.org/2000/svg"
   xmlns="http://www.w3.org/2000/svg"
   xmlns:sodipodi="http://sodipodi.sourceforge.net/DTD/sodipodi-0.dtd"
   xmlns:inkscape="http://www.inkscape.org/namespaces/inkscape"
   width="931.75555mm"
   height="98.551437mm"
   viewBox="0 0 931.75555 98.551437"
   version="1.1"
   id="svg8"
   inkscape:version="0.92.4 (5da689c313, 2019-01-14)"
   sodipodi:docname="cork.svg">
  <defs
     id="defs2">
    <marker
       style="overflow:visible"
       refY="0"
       refX="0"
       orient="auto"
       id="DistanceX">
      <path
         id="path12"
         style="stroke:#000000;stroke-width:0.5"
         d="M 3,-3 -3,3 M 0,-5 V 5"
         inkscape:connector-curvature="0" />
    </marker>
    <pattern
       y="0"
       x="0"
       width="8"
       patternUnits="userSpaceOnUse"
       id="Hatch"
       height="8">
      <path
         id="path15"
         stroke-width="0.25"
         stroke="#000000"
         linecap="square"
         d="M8 4 l-4,4" />
      <path
         id="path17"
         stroke-width="0.25"
         stroke="#000000"
         linecap="square"
         d="M6 2 l-4,4" />
      <path
         id="path19"
         stroke-width="0.25"
         stroke="#000000"
         linecap="square"
         d="M4 0 l-4,4" />
    </pattern>
    <symbol
       id="$MODEL_SPACE" />
    <symbol
       id="$PAPER_SPACE" />
  </defs>
  <sodipodi:namedview
     id="base"
     pagecolor="#ffffff"
     bordercolor="#666666"
     borderopacity="1.0"
     inkscape:pageopacity="0.0"
     inkscape:pageshadow="2"
     inkscape:zoom="0.35"
     inkscape:cx="1497.9409"
     inkscape:cy="726.23892"
     inkscape:document-units="mm"
     inkscape:current-layer="layer1"
     showgrid="false"
     fit-margin-top="5"
     fit-margin-left="5"
     fit-margin-right="5"
     fit-margin-bottom="5"
     inkscape:window-width="1920"
     inkscape:window-height="1001"
     inkscape:window-x="-9"
     inkscape:window-y="-9"
     inkscape:window-maximized="1" />
  <metadata
     id="metadata5">
    <rdf:RDF>
      <cc:Work
         rdf:about="">
        <dc:format>image/svg+xml</dc:format>
        <dc:type
           rdf:resource="http://purl.org/dc/dcmitype/StillImage" />
        <dc:title></dc:title>
      </cc:Work>
    </rdf:RDF>
  </metadata>
  <g
     inkscape:label="Capa 1"
     inkscape:groupmode="layer"
     id="layer1"
     transform="translate(290.49687,-242.43261)">
    <g
       id="g142"
       transform="matrix(0.26458333,0,0,0.26458333,-1978.4613,-539.67938)">
      <g
         id="g26"
         inkscape:label="0" />
      <g
         id="g92"
         inkscape:label="CORTE">
        <path
           id="path28"
           style="fill:none;stroke:#0000ff"
           d="m 8748.0481,3165.472 v 143.6221"
           inkscape:connector-curvature="0" />
        <path
           id="path30"
           style="fill:none;stroke:#0000ff"
           d="M 8748.0481,3309.0941 H 9881.9064"
           inkscape:connector-curvature="0" />
        <path
           id="path32"
           style="fill:none;stroke:#0000ff"
           d="M 9881.9064,3309.0941 V 3165.472"
           inkscape:connector-curvature="0" />
        <path
           id="path34"
           style="fill:none;stroke:#0000ff"
           d="M 9881.9064,3165.472 H 8748.0481"
           inkscape:connector-curvature="0" />
        <path
           id="path36"
           style="fill:none;stroke:#0000ff"
           d="m 8748.0481,2975.4115 v 143.6221"
           inkscape:connector-curvature="0" />
        <path
           id="path38"
           style="fill:none;stroke:#0000ff"
           d="M 8748.0481,3119.0336 H 9881.9064"
           inkscape:connector-curvature="0" />
        <path
           id="path40"
           style="fill:none;stroke:#0000ff"
           d="M 9881.9064,3119.0336 V 2975.4115"
           inkscape:connector-curvature="0" />
        <path
           id="path42"
           style="fill:none;stroke:#0000ff"
           d="M 9881.9064,2975.4115 H 8748.0481"
           inkscape:connector-curvature="0" />
        <path
           id="path44"
           style="fill:none;stroke:#0000ff"
           d="m 7574.1452,3165.472 v 143.6221"
           inkscape:connector-curvature="0" />
        <path
           id="path46"
           style="fill:none;stroke:#0000ff"
           d="M 7574.1452,3309.0941 H 8708.0034"
           inkscape:connector-curvature="0" />
        <path
           id="path48"
           style="fill:none;stroke:#0000ff"
           d="M 8708.0034,3309.0941 V 3165.472"
           inkscape:connector-curvature="0" />
        <path
           id="path50"
           style="fill:none;stroke:#0000ff"
           d="M 8708.0034,3165.472 H 7574.1452"
           inkscape:connector-curvature="0" />
        <path
           id="path52"
           style="fill:none;stroke:#0000ff"
           d="m 6399.1058,3165.472 v 143.6221"
           inkscape:connector-curvature="0" />
        <path
           id="path54"
           style="fill:none;stroke:#0000ff"
           d="M 6399.1058,3309.0941 H 7532.9641"
           inkscape:connector-curvature="0" />
        <path
           id="path56"
           style="fill:none;stroke:#0000ff"
           d="M 7532.9641,3309.0941 V 3165.472"
           inkscape:connector-curvature="0" />
        <path
           id="path58"
           style="fill:none;stroke:#0000ff"
           d="M 7532.9641,3165.472 H 6399.1058"
           inkscape:connector-curvature="0" />
        <path
           id="path60"
           style="fill:none;stroke:#0000ff"
           d="m 7242.9697,3273.9444 h 54.4252"
           inkscape:connector-curvature="0" />
        <path
           id="path62"
           style="fill:none;stroke:#0000ff"
           d="m 7297.3949,3273.9444 v -73.3228"
           inkscape:connector-curvature="0" />
        <path
           id="path64"
           style="fill:none;stroke:#0000ff"
           d="m 7297.3949,3200.6216 h -54.4252"
           inkscape:connector-curvature="0" />
        <path
           id="path66"
           style="fill:none;stroke:#0000ff"
           d="m 7242.9697,3200.6216 v 73.3228"
           inkscape:connector-curvature="0" />
        <path
           id="path68"
           style="fill:none;stroke:#0000ff"
           d="m 7574.1452,2975.4115 v 143.6221"
           inkscape:connector-curvature="0" />
        <path
           id="path70"
           style="fill:none;stroke:#0000ff"
           d="M 7574.1452,3119.0336 H 8708.0034"
           inkscape:connector-curvature="0" />
        <path
           id="path72"
           style="fill:none;stroke:#0000ff"
           d="M 8708.0034,3119.0336 V 2975.4115"
           inkscape:connector-curvature="0" />
        <path
           id="path74"
           style="fill:none;stroke:#0000ff"
           d="M 8708.0034,2975.4115 H 7574.1452"
           inkscape:connector-curvature="0" />
        <path
           id="path76"
           style="fill:none;stroke:#0000ff"
           d="m 6399.1058,2975.4115 v 143.6221"
           inkscape:connector-curvature="0" />
        <path
           id="path78"
           style="fill:none;stroke:#0000ff"
           d="M 6399.1058,3119.0336 H 7532.9641"
           inkscape:connector-curvature="0" />
        <path
           id="path80"
           style="fill:none;stroke:#0000ff"
           d="M 7532.9641,3119.0336 V 2975.4115"
           inkscape:connector-curvature="0" />
        <path
           id="path82"
           style="fill:none;stroke:#0000ff"
           d="M 7532.9641,2975.4115 H 6399.1058"
           inkscape:connector-curvature="0" />
        <path
           id="path84"
           style="fill:none;stroke:#0000ff"
           d="m 7242.9697,3083.884 h 54.4252"
           inkscape:connector-curvature="0" />
        <path
           id="path86"
           style="fill:none;stroke:#0000ff"
           d="m 7297.3949,3083.884 v -73.3229"
           inkscape:connector-curvature="0" />
        <path
           id="path88"
           style="fill:none;stroke:#0000ff"
           d="m 7297.3949,3010.5611 h -54.4252"
           inkscape:connector-curvature="0" />
        <path
           id="path90"
           style="fill:none;stroke:#0000ff"
           d="m 7242.9697,3010.5611 v 73.3229"
           inkscape:connector-curvature="0" />
      </g>
    </g>
  </g>
</svg>
